<svg width="16px" height="9px" viewBox="0 0 16 9" version="1.1" xmlns="http://www.w3.org/2000/svg" xmlns:xlink="http://www.w3.org/1999/xlink">
    <g id="Page-1" stroke="none" stroke-width="1" fill="none" fill-rule="evenodd">
        <g id="chat_marketing_site_q" transform="translate(-317.000000, -674.000000)" stroke="#FFFFFF">
            <g id="Group" transform="translate(317.000000, 674.000000)">
                <path d="M0.3695,4.0752 L14.7695,4.0752" id="Stroke-163"></path>
                <polyline id="Stroke-165" points="10.7694 0.0762 14.7694 4.0762 10.7694 8.0762"></polyline>
            </g>
        </g>
    </g>
</svg>